Baylor to Win the Title - Taylor Riemersma's Work
…
Created a fit.

log_fit <- 
  log_workflow %>% 
  fit(data = log_train)

Set the model to predict the training data.

trainpredict <- log_fit %>% predict(new_data = log_train) %>%
  bind_cols(log_train)

trainpredict

## # A tibble: 38,331 x 18
##    .pred_class Season Team  Date       Opponent Outcome Cumulative_Mean…
##    <fct>       <chr>  <chr> <date>     <chr>    <fct>              <dbl>
##  1 L           2014-… Abil… 2014-11-19 Tulsa    L                   94.9
##  2 L           2014-… Abil… 2014-11-22 Duquesne L                   97.4
##  3 L           2014-… Abil… 2014-11-29 UC-Rive… L                   98.7
##  4 L           2014-… Abil… 2014-12-04 Sacrame… W                  100. 
##  5 L           2014-… Abil… 2014-12-06 Houston  L                   98.7
##  6 L           2014-… Abil… 2014-12-17 Loyola … L                   95.7
##  7 W           2014-… Abil… 2014-12-23 Arkansa… W                   92.9
##  8 L           2014-… Abil… 2014-12-28 Grand C… L                   94.0
##  9 W           2014-… Abil… 2015-01-04 Central… W                   96.0
## 10 W           2014-… Abil… 2015-01-10 Nicholl… W                   96.3
## # … with 38,321 more rows, and 11 more variables:
## #   Cumulative_Mean_Defensive <dbl>, Rolling_Mean_FGPCT <dbl>,
## #   Rolling_Mean_Turnovers <dbl>, TeamSRS <dbl>, TeamSOS <dbl>,
## #   Opponent_Cumulative_Offensive <dbl>,
## #   Opponent_Cumulative_Mean_Defensive <dbl>,
## #   Opponent_Rolling_Mean_FGPCT <dbl>, Opponent_Rolling_Mean_Turnovers <dbl>,
## #   OpponentSRS <dbl>, OpponentSOS <dbl>

Did the same but to get both the winning and losing percentages.

trainpredict <- log_fit %>% predict(new_data = log_train, type="prob") %>%
  bind_cols(trainpredict)

trainpredict

## # A tibble: 38,331 x 20
##    .pred_L .pred_W .pred_class Season Team  Date       Opponent Outcome
##      <dbl>   <dbl> <fct>       <chr>  <chr> <date>     <chr>    <fct>  
##  1   0.945  0.0549 L           2014-… Abil… 2014-11-19 Tulsa    L      
##  2   0.964  0.0362 L           2014-… Abil… 2014-11-22 Duquesne L      
##  3   0.933  0.0675 L           2014-… Abil… 2014-11-29 UC-Rive… L      
##  4   0.518  0.482  L           2014-… Abil… 2014-12-04 Sacrame… W      
##  5   0.936  0.0644 L           2014-… Abil… 2014-12-06 Houston  L      
##  6   0.986  0.0137 L           2014-… Abil… 2014-12-17 Loyola … L      
##  7   0.190  0.810  W           2014-… Abil… 2014-12-23 Arkansa… W      
##  8   0.890  0.110  L           2014-… Abil… 2014-12-28 Grand C… L      
##  9   0.131  0.869  W           2014-… Abil… 2015-01-04 Central… W      
## 10   0.203  0.797  W           2014-… Abil… 2015-01-10 Nicholl… W      
## # … with 38,321 more rows, and 12 more variables:
## #   Cumulative_Mean_Offensive <dbl>, Cumulative_Mean_Defensive <dbl>,
## #   Rolling_Mean_FGPCT <dbl>, Rolling_Mean_Turnovers <dbl>, TeamSRS <dbl>,
## #   TeamSOS <dbl>, Opponent_Cumulative_Offensive <dbl>,
## #   Opponent_Cumulative_Mean_Defensive <dbl>,
## #   Opponent_Rolling_Mean_FGPCT <dbl>, Opponent_Rolling_Mean_Turnovers <dbl>,
## #   OpponentSRS <dbl>, OpponentSOS <dbl>
…
## # A tibble: 1 x 3
##   .metric .estimator .estimate
##   <chr>   <chr>          <dbl>
## 1 roc_auc binary      0.000577

## # A tibble: 1 x 3
##   .metric .estimator .estimate
##   <chr>   <chr>          <dbl>
## 1 roc_auc binary         0.999

## # A tibble: 9,582 x 18
##    .pred_class Season Team  Date       Opponent Outcome Cumulative_Mean…
##    <fct>       <chr>  <chr> <date>     <chr>    <fct>              <dbl>
##  1 W           2014-… Abil… 2014-12-22 South C… W                   91.8
##  2 L           2014-… Abil… 2015-03-05 Incarna… L                   95.3
##  3 L           2014-… Air … 2015-02-04 New Mex… W                  107. 
##  4 L           2014-… Air … 2015-02-21 Colorad… L                  106. 
##  5 W           2014-… Akron 2014-12-04 Western… W                  103. 
##  6 W           2014-… Akron 2015-01-06 Western… W                  103. 
##  7 L           2014-… Akron 2015-01-17 Central… W                  103. 
##  8 W           2014-… Akron 2015-03-09 Norther… W                  103. 
##  9 L           2014-… Alab… 2014-11-25 Jackson… L                   87.9
## 10 L           2014-… Alab… 2014-12-19 Marquet… L                   84.1
## # … with 9,572 more rows, and 11 more variables:
## #   Cumulative_Mean_Defensive <dbl>, Rolling_Mean_FGPCT <dbl>,
## #   Rolling_Mean_Turnovers <dbl>, TeamSRS <dbl>, TeamSOS <dbl>,
## #   Opponent_Cumulative_Offensive <dbl>,
## #   Opponent_Cumulative_Mean_Defensive <dbl>,
## #   Opponent_Rolling_Mean_FGPCT <dbl>, Opponent_Rolling_Mean_Turnovers <dbl>,
## #   OpponentSRS <dbl>, OpponentSOS <dbl>

## # A tibble: 9,582 x 20
##    .pred_L .pred_W .pred_class Season Team  Date       Opponent Outcome
##      <dbl>   <dbl> <fct>       <chr>  <chr> <date>     <chr>    <fct>  
##  1  0.291   0.709  W           2014-… Abil… 2014-12-22 South C… W      
##  2  0.834   0.166  L           2014-… Abil… 2015-03-05 Incarna… L      
##  3  0.640   0.360  L           2014-… Air … 2015-02-04 New Mex… W      
##  4  0.797   0.203  L           2014-… Air … 2015-02-21 Colorad… L      
##  5  0.0804  0.920  W           2014-… Akron 2014-12-04 Western… W      
##  6  0.423   0.577  W           2014-… Akron 2015-01-06 Western… W      
##  7  0.640   0.360  L           2014-… Akron 2015-01-17 Central… W      
##  8  0.402   0.598  W           2014-… Akron 2015-03-09 Norther… W      
##  9  0.562   0.438  L           2014-… Alab… 2014-11-25 Jackson… L      
## 10  0.984   0.0162 L           2014-… Alab… 2014-12-19 Marquet… L      
## # … with 9,572 more rows, and 12 more variables:
## #   Cumulative_Mean_Offensive <dbl>, Cumulative_Mean_Defensive <dbl>,
## #   Rolling_Mean_FGPCT <dbl>, Rolling_Mean_Turnovers <dbl>, TeamSRS <dbl>,
## #   TeamSOS <dbl>, Opponent_Cumulative_Offensive <dbl>,
## #   Opponent_Cumulative_Mean_Defensive <dbl>,
## #   Opponent_Rolling_Mean_FGPCT <dbl>, Opponent_Rolling_Mean_Turnovers <dbl>,
## #   OpponentSRS <dbl>, OpponentSOS <dbl>
…
